0000000000000
0101000001010
0101010101010
0101010101010
0101012101010
0100003000010
2001110111002
0000030300000
0101033301010
0101030301010
0101000001010
0100011100010
0000014100000

0001000001000
0101000001010
0000010100000
3012003002103
2001011101002
0131023201310
3003301033003
3011131311103
1000033300001
1002003002001
0001000001000
0000011100000
0000014100000

